…
``` r
month_df = 
  tibble(
    month = 1:12,
    month_name = month.name
  )

Precipitation_df = 
  bind_rows(precip_19, precip_18)

left_join(Precipitation_df, month_df, by = "month")
```

    ## # A tibble: 24 × 4
    ##     year month total month_name
    ##    <dbl> <dbl> <dbl> <chr>     
    ##  1  2019     1  3.1  January   
    ##  2  2019     2  3.64 February  
    ##  3  2019     3  4.47 March     
    ##  4  2019     4  1.46 April     
    ##  5  2019     5  3.58 May       
    ##  6  2019     6  0.42 June      
    ##  7  2019     7  3.85 July      
    ##  8  2019     8  2.39 August    
    ##  9  2019     9  0.16 September 
    ## 10  2019    10  5.45 October   
    ## # … with 14 more rows
…
